{
	"credit": "Made with Blockbench",
	"parent": "minecraft:item/generated",
	"textures": {
		"layer0": "item/oak_sapling"
	},
	"display": {
		"thirdperson_righthand": {
			"rotation": [70, 20, 55],
			"translation": [-0.75, 0.25, -0.75]
		},
		"thirdperson_lefthand": {
			"rotation": [70, 10, -35],
			"translation": [-0.75, 0.25, -0.75]
		},
		"firstperson_righthand": {
			"rotation": [0, -35, 35],
			"translation": [4.25, 0.25, 0]
		},
		"firstperson_lefthand": {
			"rotation": [0, -45, -45],
			"translation": [4.25, 0.25, 0]
		},
		"head": {
			"rotation": [0, 0, -135],
			"translation": [0, 6.5, -7]
		}
	}
}