{
	"credit": "Made with Blockbench",
	"parent": "minecraft:item/generated",
	"textures": {
		"layer0": "item/gunpowder"
	},
	"display": {
		"thirdperson_righthand": {
			"rotation": [0, -45, -16],
			"translation": [1, 2.25, 0.75],
			"scale": [1, 1, 1]
		},
		"thirdperson_lefthand": {
			"rotation": [0, -45, -16],
			"translation": [1, 2.25, 0.75],
			"scale": [1, 1, 1]
		},
		"firstperson_righthand": {
			"rotation": [0, -45, 0],
			"scale": [1, 1, 1]
		},
		"firstperson_lefthand": {
			"rotation": [0, -45, 0],
			"scale": [1, 1, 1]
		},
		"ground": {
			"rotation": [90, 0, 0],
			"translation": [0, -3, 0],
			"scale": [1, 1, 1]
		},
		"head": {
			"translation": [-5, -6.75, -7]
		}
	}
}
