{
	"credit": "Made with Blockbench",
	"parent": "item/generated",
	"display": {
		"thirdperson_righthand": {
			"rotation": [0, -90, 55],
			"translation": [0, 4, 0.5]
		},
		"thirdperson_lefthand": {
			"rotation": [0, 90, -55],
			"translation": [0, 4, 0.5]
		},
		"firstperson_righthand": {
			"rotation": [0, -90, 33],
			"translation": [1.13, -0.5, 1.13]
		},
		"firstperson_lefthand": {
			"rotation": [0, 90, -33],
			"translation": [1.13, -0.5, 1.13]
		},
		"ground": {
			"rotation": [90, 0, 0],
			"translation": [0, -3, 0]
		},
		"head": {
			"translation": [0, 8, 7],
			"scale": [1.66, 1.66, 1.66]
		},
		"fixed": {
			"scale": [2, 2, 2]
		}
	},
	"groups": [
		{
			"name": "handheld",
			"origin": [8, 8, 8],
			"color": 0,
			"children": []
		}
	]
}